Project/Lab2/Adder/simulation/qsim/Adder.msim.vcd
$comment
	File created using the following command:
		vcd file Adder.msim.vcd -direction
$end
$date
	Sat Jul 20 16:47:08 2024
$end
$version
	ModelSim Version 10.1d
$end
$timescale
	1ps
$end
$scope module Adder_vlg_vec_tst $end
$var reg 1 ! a $end
$var reg 1 " b $end
$var reg 1 # ci $end
$var wire 1 $ co $end
$var wire 1 % s $end
$var wire 1 & sampler $end
$scope module i1 $end
$var wire 1 ' gnd $end
$var wire 1 ( vcc $end
$var wire 1 ) unknown $end
$var tri1 1 * devclrn $end
$var tri1 1 + devpor $end
$var tri1 1 , devoe $end
$var wire 1 - b~combout $end
$var wire 1 . a~combout $end
$var wire 1 / ci~combout $end
$var wire 1 0 WideXor0~combout $end
$var wire 1 1 Add1~0_combout $end
$upscope $end
$upscope $end
$enddefinitions $end
#0
$dumpvars
0!
0"
0#
0$
0%
x&
0'
1(
x)
1*
1+
1,
0-
0.
0/
00
01
$end
#90000
1"
1-
0&
10
1%
#130000
0"
0-
1&
00
0%
#150000
1!
1.
0&
10
1%
#230000
1"
1-
1&
11
00
1$
0%
#310000
0!
0"
0.
0-
0&
01
0$
#360000
1#
1/
1&
10
1%
#420000
1"
1-
0&
11
00
1$
0%
#490000
0"
0-
1&
01
10
0$
1%
#510000
1!
1.
0&
11
00
1$
0%
#580000
1"
1-
1&
10
1%
#660000
0#
0!
0"
0/
0.
0-
0&
01
00
0$
0%
