Project/Lab1/CongOR/simulation/qsim/CongOR.msim.vcd
$comment
	File created using the following command:
		vcd file CongOR.msim.vcd -direction
$end
$date
	Fri Jul 26 13:50:57 2024
$end
$version
	ModelSim Version 10.1d
$end
$timescale
	1ps
$end
$scope module CongOR_vlg_vec_tst $end
$var reg 1 ! X1 $end
$var reg 1 " X2 $end
$var wire 1 # Y $end
$var wire 1 $ sampler $end
$scope module i1 $end
$var wire 1 % gnd $end
$var wire 1 & vcc $end
$var wire 1 ' unknown $end
$var tri1 1 ( devclrn $end
$var tri1 1 ) devpor $end
$var tri1 1 * devoe $end
$var wire 1 + X2~combout $end
$var wire 1 , X1~combout $end
$var wire 1 - inst~combout $end
$upscope $end
$upscope $end
$enddefinitions $end
#0
$dumpvars
0!
0"
0#
x$
0%
1&
x'
1(
1)
1*
0+
0,
0-
$end
#40000
1!
1,
0$
1-
1#
#140000
1"
1+
1$
#160000
0!
0,
0$
#280000
0"
0+
1$
0-
0#
#300000
1!
1,
0$
1-
1#
#380000
1"
1+
1$
#460000
0!
0,
0$
#550000
0"
0+
1$
0-
0#
#580000
1!
1"
1,
1+
0$
1-
1#
#700000
0!
0"
0,
0+
1$
0-
0#
