simulation/qsim/CongAND.msim.vcd
$comment
	File created using the following command:
		vcd file CongAND.msim.vcd -direction
$end
$date
	Sat Jul 20 15:27:36 2024
$end
$version
	ModelSim Version 10.1d
$end
$timescale
	1ps
$end
$scope module CongAND_vlg_vec_tst $end
$var reg 1 ! A $end
$var reg 1 " B $end
$var wire 1 # O $end
$var wire 1 $ sampler $end
$scope module i1 $end
$var wire 1 % gnd $end
$var wire 1 & vcc $end
$var wire 1 ' unknown $end
$var tri1 1 ( devclrn $end
$var tri1 1 ) devpor $end
$var tri1 1 * devoe $end
$var wire 1 + A~combout $end
$var wire 1 , B~combout $end
$var wire 1 - inst~combout $end
$upscope $end
$upscope $end
$enddefinitions $end
#0
$dumpvars
0!
0"
0#
x$
0%
1&
x'
1(
1)
1*
0+
0,
0-
$end
#40000
1!
1+
0$
#110000
0!
0+
1$
#120000
1"
1,
0$
#200000
1!
1+
1$
1-
1#
#220000
0"
0,
0$
0-
0#
#270000
1"
1,
1$
1-
1#
#290000
0!
0+
0$
0-
0#
#380000
1!
1+
1$
1-
1#
#400000
0"
0,
0$
0-
0#
#560000
0!
0+
1$
